{
  "title": "Analytics Overview",
  "widgets": [
    {
      "visualization": "cube_analytics_single_stat",
      "title": "Session count",
      "gridAttributes": {
        "yPos": 0,
        "xPos": 0,
        "width": 6,
        "height": 2
      }
    },
    {
      "visualization": "cube_analytics_line_chart",
      "title": "Audience",
      "gridAttributes": {
        "xPos": 6,
        "width": 6,
        "height": 5
      }
    },
    {
      "visualization": "cube_analytics_data_table",
      "title": "Sources",
      "gridAttributes": {
        "yPos": 2,
        "width": 6,
        "height": 5
      }
    }
  ]
}